{
    "modules": [],
    "properties": {
        "backendModules": [],
        "description": "Add a new Custom Pages and make it accessible in the Page Viewhelper",
        "emConf": {
            "category": "plugin",
            "custom_category": "",
            "dependsOn": "typo3 => 6.2\n",
            "disableLocalization": false,
            "disableVersioning": false,
            "sourceLanguage": "en",
            "state": "alpha",
            "targetVersion": "6.2",
            "version": ""
        },
        "extensionKey": "custom_pages",
        "name": "Custom Pages",
        "originalExtensionKey": "",
        "persons": [
            {
                "company": "",
                "email": "stammer@deichbrise.de",
                "name": "Pascal Stammer",
                "role": "Developer"
            }
        ],
        "plugins": [],
        "vendorName": "Deichbrise"
    },
    "wires": [],
    "log": {
        "last_modified": "2015-05-13 05:56",
        "extension_builder_version": "6.2.0",
        "be_user": " (1)"
    }
}